[
	{
		"title": "Auberge du Vieux Tour",
		"position": {
			"lat": 49.3168674,
			"lng": 0.13549016
		}
	},
	{
		"title": "Auberge des Dominicaines",
		"position": {
			"lat": 49.2851012,
			"lng": 0.18298327
		}
	},
	{
		"title": "Bistro de l'Esp\u00e9rance",
		"position": {
			"lat": 49.2856303,
			"lng": 0.1845551
		}
	},
	{
		"title": "Brasserie La Cidria",
		"position": {
			"lat": 49.2743145,
			"lng": 0.20382325
		}
	},
	{
		"title": "Auberge de la Touques",
		"position": {
			"lat": 49.2867679,
			"lng": 0.1851333
		}
	},
	{
		"title": "Brasserie Chez Maguy",
		"position": {
			"lat": 49.2900461,
			"lng": 0.19210656
		}
	},
	{
		"title": "Auberge de Valsem\u00e9",
		"position": {
			"lat": 49.2351074,
			"lng": 0.09723559
		}
	},
	{
		"title": "Bar Brasserie du Th\u00e9\u00e2tre",
		"position": {
			"lat": 49.285917,
			"lng": 0.1845816
		}
	},
	{
		"title": "Auberge du Cochon d'Or",
		"position": {
			"lat": 49.3459318,
			"lng": 0.34061882
		}
	},
	{
		"title": "Auberge des Deux Tonneaux",
		"position": {
			"lat": 49.2584407,
			"lng": 0.20117193
		}
	},
	{
		"title": "Auberge Saint-Martin",
		"position": {
			"lat": 49.3021078,
			"lng": 0.24194037
		}
	},
	{
		"title": "Auberge Le Clos Saint-Julien",
		"position": {
			"lat": 49.2883384,
			"lng": 0.22685016
		}
	}
]